{
    "name": "Appliance",
    "alias": "appliance",
    "description": "",
    "keywords": [],
    "priority": 0,
    "providers": [
        "Modules\\Appliance\\Providers\\ApplianceServiceProvider"
    ],
    "files": []
}
